%YAML 1.1
%TAG !u! tag:unity3d.com,2011:
--- !u!1045 &1
EditorBuildSettings:
  m_ObjectHideFlags: 0
  serializedVersion: 2
  m_Scenes:
  - enabled: 1
    path: Assets/Scenes/Level1.unity
    guid: a500ebe6847df044f8fc9dde59a53664
  - enabled: 1
    path: Assets/Scenes/Level2.unity
    guid: 619cc54f699bfb8438e1661dff46d6ce
  - enabled: 1
    path: Assets/Scenes/Level3.unity
    guid: a2ed6da709ee8834f9a7a54e1c8a32f5
  - enabled: 1
    path: Assets/Scenes/Transition.unity
    guid: 730fed2c022dfff4db8a630caf538bc6
  - enabled: 1
    path: Assets/Scenes/End.unity
    guid: d65f416ccbaf5b44cac499b727ca7416
  m_configObjects: {}
